Introduction to Data Science
…
which is now a numeric:

class(us_murder_rate)
#> [1] "numeric"

We will see other instances in which using the . is useful. For now, we will only use it to produce numeric vectors from pipelines constructed with dplyr.

6.3.3 Group then summarize

A common operation in data exploration is to first split data into groups and then compute summaries for each group. For example, we may want to compute the average and standard deviation for men’s and women’s heights separately. The group_by function helps us do this.

If we type this:

heights %>% group_by(sex)
#> # A tibble: 1,050 x 2
#> # Groups:   sex [2]
#>   sex    height
#>   <fct>   <dbl>
#> 1 Male       75
#> 2 Male       70
#> 3 Male       68
#> 4 Male       74
#> 5 Male       61
#> 6 Female     65
#> # ... with 1,044 more rows
…
