Introduction to Data Science
…
which is now a numeric:

class(us_murder_rate)
#> [1] "numeric"

We will see other instances in which using the . is useful. For now, we will only use it to produce numeric vectors from pipelines constructed with dplyr.

2.10.3 Group then summarize

A common operation in data exploration is to first split data into groups and then compute summaries for each group. For example, we may want to compute the average and standard deviation for men’s and women’s heights separately. The group_by function helps us do this.

If we type this:

heights %>% group_by(sex)
#> # A tibble: 1,050 x 2
#> # Groups:   sex [2]
#>      sex height
#>   <fctr>  <dbl>
#> 1   Male     75
#> 2   Male     70
#> 3   Male     68
#> 4   Male     74
#> 5   Male     61
#> 6 Female     65
#> # ... with 1,044 more rows
…
We then compute these quantities for each region:

surv_income <- gapminder %>% 
  filter(year %in% present_year & !is.na(gdp) & !is.na(infant_mortality) & !is.na(group)) %>%
  group_by(group) %>%
  summarize(income = sum(gdp)/sum(population)/365,
            infant_survival_rate = 1-sum(infant_mortality/1000*population)/sum(population)) 

surv_income %>% arrange(income)
#> # A tibble: 7 x 3
#>                group income infant_survival_rate
#>                <chr>  <dbl>                <dbl>
#> 1 Sub-Saharan Africa   1.76                0.936
#> 2      Southern Asia   2.07                0.952
#> 3    Pacific Islands   2.70                0.956
#> 4    Northern Africa   4.94                0.970
#> 5      Latin America  13.24                0.983
#> 6          East Asia  13.44                0.985
#> # ... with 1 more rows
…
