Introduction to Data Science
…
results <- polls_us_election_2016 %>%
  filter(state!="U.S." & 
           !grepl("CD", state) & 
           enddate >="2016-10-31" & 
           (grade %in% c("A+","A","A-","B+") | is.na(grade))) %>%
  mutate(spread = rawpoll_clinton/100 - rawpoll_trump/100) %>%
  group_by(state) %>%
  summarize(avg = mean(spread), sd = sd(spread), n = n()) %>%
  mutate(state = as.character(state))

Here are the 10 closest races according to the polls:

results %>% arrange(abs(avg))
#> # A tibble: 47 x 4
#>            state      avg     sd     n
#>            <chr>    <dbl>  <dbl> <int>
#> 1        Florida  0.00356 0.0163     7
#> 2 North Carolina -0.00730 0.0306     9
#> 3           Ohio -0.01042 0.0252     6
#> 4         Nevada  0.01686 0.0441     7
#> 5           Iowa -0.01973 0.0437     3
#> 6       Michigan  0.02095 0.0203     6
#> # ... with 41 more rows
…
The code below assigns a standard deviation, the median of the rest, to states with just one poll.

results <- results %>%
  mutate(sd = ifelse(is.na(sd), median(results$sd, na.rm=TRUE), sd))

To make probabilistic arguments, we will use a Monte Carlo simulation. For each state, we apply the Bayesian approach to generate an election day \(d\). We could construct the priors for each state based on recent history. However, to keep it simple, we assign a prior to each state that assumes we know nothing about what will happen. Since from election year to election year the results from a specific state don’t change that much, we will assign a standard deviation of 2% or \(\tau=0.02\). The Bayesian calculation looks like this:

mu <- 0
tau <- 0.02
results %>% mutate(sigma = sd/sqrt(n), 
                   B = sigma^2 / (sd^2 + tau^2),
                   posterior_mean = B*mu + (1-B)*avg,
                   posterior_se = sqrt( 1/ (1/sigma^2 + 1/tau^2))) %>%
  arrange(abs(posterior_mean))
#> # A tibble: 47 x 12
#>            state      avg     sd     n electoral_votes clinton trump
#>            <chr>    <dbl>  <dbl> <int>           <int>   <dbl> <dbl>
#> 1        Florida  0.00356 0.0163     7              29    47.8  49.0
#> 2 North Carolina -0.00730 0.0306     9              15    46.2  49.8
#> 3           Ohio -0.01042 0.0252     6              18    43.5  51.7
#> 4           Iowa -0.01973 0.0437     3               6    41.7  51.1
#> 5         Nevada  0.01686 0.0441     7               6    47.9  45.5
#> 6       Michigan  0.02095 0.0203     6              16    47.3  47.5
#> # ... with 41 more rows, and 5 more variables: others <dbl>, sigma <dbl>,
#> #   B <dbl>, posterior_mean <dbl>, posterior_se <dbl>
…
