Introduction to Data Science
…
So by the time we reach 100 predictors, the neighborhood is no longer very local, as each side covers almost the entire dataset.

Here we look at a set of elegant and versatile methods that adapt to higher dimensions and also allow these regions to take more complex shapes while still producing models that are interpretable. These are very popular, well-known and studied methods. We will concentrate on Regression and Decision Trees and their extension to Random Forests.

31.5.2 CART motivation

To motivate this section, we will use a new dataset that includes the breakdown of the composition of olive oil into 8 fatty acids:

library(tidyverse)
library(dslabs)
data("olive")
olive %>% tbl_df
#> # A tibble: 572 x 10
#>   region area  palmitic palmitoleic stearic oleic linoleic linolenic
#> * <fct>  <fct>    <dbl>       <dbl>   <dbl> <dbl>    <dbl>     <dbl>
#> 1 South… Nort…    10.8        0.75     2.26  78.2     6.72      0.36
#> 2 South… Nort…    10.9        0.73     2.24  77.1     7.81      0.31
#> 3 South… Nort…     9.11       0.54     2.46  81.1     5.49      0.31
#> 4 South… Nort…     9.66       0.570    2.4   79.5     6.19      0.5 
#> 5 South… Nort…    10.5        0.67     2.59  77.7     6.72      0.5 
#> 6 South… Nort…     9.11       0.49     2.68  79.2     6.78      0.51
#> # ... with 566 more rows, and 2 more variables: arachidic <dbl>,
#> #   eicosenoic <dbl>
…
