Chapter 10 Data visualization in practice | Introduction to Data Science
…
We then compute these quantities for each region:

surv_income <- gapminder %>% 
  filter(year %in% present_year & !is.na(gdp) & 
           !is.na(infant_mortality) & !is.na(group)) %>%
  group_by(group) %>%
  summarize(income = sum(gdp)/sum(population)/365,
            infant_survival_rate = 
              1 - sum(infant_mortality/1000*population)/sum(population)) 

surv_income %>% arrange(income)
#> # A tibble: 7 x 3
#>   group              income infant_survival_rate
#>   <chr>               <dbl>                <dbl>
#> 1 Sub-Saharan Africa   1.76                0.936
#> 2 Southern Asia        2.07                0.952
#> 3 Pacific Islands      2.70                0.956
#> 4 Northern Africa      4.94                0.970
#> 5 Latin America       13.2                 0.983
#> 6 East Asia           13.4                 0.985
#> # ... with 1 more row
…
