Chapter 34 Large datasets | Introduction to Data Science
…
These all seem like obscure movies. Many of them have large predictions. Let’s look at the top 10 worst and best movies based on \(\hat{b}_i\). First, let’s create a database that connects movieId to movie title:

movie_titles <- movielens %>% 
  select(movieId, title) %>%
  distinct()

Here are the 10 best movies according to our estimate:

movie_avgs %>% left_join(movie_titles, by="movieId") %>%
  arrange(desc(b_i)) %>% 
  select(title, b_i) %>% 
  slice(1:10) 
#> # A tibble: 10 x 2
#>   title                                                     b_i
#>   <chr>                                                   <dbl>
#> 1 Lamerica                                                 1.46
#> 2 Love & Human Remains                                     1.46
#> 3 Enfer, L'                                                1.46
#> 4 Picture Bride (Bijo photo)                               1.46
#> 5 Red Firecracker, Green Firecracker (Pao Da Shuang Deng)  1.46
#> 6 Faces                                                    1.46
#> # ... with 4 more rows

And here are the 10 worst:

movie_avgs %>% left_join(movie_titles, by="movieId") %>%
  arrange(b_i) %>% 
  select(title, b_i) %>% 
  slice(1:10) 
#> # A tibble: 10 x 2
#>   title                                          b_i
#>   <chr>                                        <dbl>
#> 1 Santa with Muscles                           -3.04
#> 2 B*A*P*S                                      -3.04
#> 3 3 Ninjas: High Noon On Mega Mountain         -3.04
#> 4 Barney's Great Adventure                     -3.04
#> 5 Merry War, A                                 -3.04
#> 6 Day of the Beast, The (Día de la Bestia, El) -3.04
#> # ... with 4 more rows

They all seem to be quite obscure. Let’s look at how often they are rated.

train_set %>% count(movieId) %>% 
  left_join(movie_avgs) %>%
  left_join(movie_titles, by="movieId") %>%
  arrange(desc(b_i)) %>% 
  select(title, b_i, n) %>% 
  slice(1:10) 
#> Joining, by = "movieId"
#> # A tibble: 10 x 3
#>   title                                                     b_i     n
#>   <chr>                                                   <dbl> <int>
#> 1 Lamerica                                                 1.46     1
#> 2 Love & Human Remains                                     1.46     3
#> 3 Enfer, L'                                                1.46     1
#> 4 Picture Bride (Bijo photo)                               1.46     1
#> 5 Red Firecracker, Green Firecracker (Pao Da Shuang Deng)  1.46     3
#> 6 Faces                                                    1.46     1
#> # ... with 4 more rows

train_set %>% count(movieId) %>% 
  left_join(movie_avgs) %>%
  left_join(movie_titles, by="movieId") %>%
  arrange(b_i) %>% 
  select(title, b_i, n) %>% 
  slice(1:10)
#> Joining, by = "movieId"
#> # A tibble: 10 x 3
#>   title                                          b_i     n
#>   <chr>                                        <dbl> <int>
#> 1 Santa with Muscles                           -3.04     1
#> 2 B*A*P*S                                      -3.04     1
#> 3 3 Ninjas: High Noon On Mega Mountain         -3.04     1
#> 4 Barney's Great Adventure                     -3.04     1
#> 5 Merry War, A                                 -3.04     1
#> 6 Day of the Beast, The (Día de la Bestia, El) -3.04     1
#> # ... with 4 more rows
…
Now, let’s look at the top 10 best movies based on the penalized estimates \(\hat{b}_i(\lambda)\):

train_set %>%
  count(movieId) %>% 
  left_join(movie_reg_avgs, by = "movieId") %>%
  left_join(movie_titles, by = "movieId") %>%
  arrange(desc(b_i)) %>% 
  select(title, b_i, n) %>% 
  slice(1:10)
#> # A tibble: 10 x 3
#>   title                          b_i     n
#>   <chr>                        <dbl> <int>
#> 1 All About Eve                0.927    26
#> 2 Shawshank Redemption, The    0.921   240
#> 3 Godfather, The               0.897   153
#> 4 Godfather: Part II, The      0.871   100
#> 5 Maltese Falcon, The          0.860    47
#> 6 Best Years of Our Lives, The 0.859    11
#> # ... with 4 more rows

These make much more sense! Here are the top 10 worst movies:

train_set %>%
  count(movieId) %>% 
  left_join(movie_reg_avgs, by = "movieId") %>%
  left_join(movie_titles, by="movieId") %>%
  arrange(b_i) %>% 
  select(title, b_i, n) %>% 
  slice(1:10) 
#> # A tibble: 10 x 3
#>   title                                b_i     n
#>   <chr>                              <dbl> <int>
#> 1 Battlefield Earth                  -2.06    14
#> 2 Joe's Apartment                    -1.78     7
#> 3 Speed 2: Cruise Control            -1.69    20
#> 4 Super Mario Bros.                  -1.60    13
#> 5 Police Academy 6: City Under Siege -1.57    10
#> 6 After Earth                        -1.52     4
#> # ... with 4 more rows
…
