Chapter 19 Linear Models | Introduction to Data Science
…
Remember that the regression slope for predicting runs with BB was 0.7. Once we stratify by HR, these slopes are substantially reduced:

dat %>%  
  group_by(HR_strata) %>%
  summarize(slope = cor(BB_per_game, R_per_game)*sd(R_per_game)/sd(BB_per_game))
#> # A tibble: 9 x 2
#>   HR_strata slope
#>       <dbl> <dbl>
#> 1       0.4 0.734
#> 2       0.5 0.566
#> 3       0.6 0.412
#> 4       0.7 0.285
#> 5       0.8 0.365
#> 6       0.9 0.261
#> # ... with 3 more rows
…
In this case, the slopes do not change much from the original:

#> # A tibble: 12 x 2
#>   BB_strata slope
#>       <dbl> <dbl>
#> 1       2.8  1.53
#> 2       2.9  1.57
#> 3       3    1.52
#> 4       3.1  1.49
#> 5       3.2  1.58
#> 6       3.3  1.56
#> # ... with 6 more rows
…
To see how we use the lm function in a more complex analysis, let’s go back to the baseball example. In a previous example, we estimated regression lines to predict runs for BB in different HR strata. We first constructed a data frame similar to this:

dat <- Teams %>% filter(yearID %in% 1961:2001) %>%
  mutate(HR = round(HR/G, 1), 
         BB = BB/G,
         R = R/G) %>%
  select(HR, BB, R) %>%
  filter(HR >= 0.4 & HR<=1.2) 

Since we didn’t know the lm function, to compute the regression line in each strata, we used the formula directly like this:

dat %>%  
  group_by(HR) %>%
  summarize(slope = cor(BB,R)*sd(R)/sd(BB))
#> # A tibble: 9 x 2
#>      HR slope
#>   <dbl> <dbl>
#> 1   0.4 0.734
#> 2   0.5 0.566
#> 3   0.6 0.412
#> 4   0.7 0.285
#> 5   0.8 0.365
#> 6   0.9 0.261
#> # ... with 3 more rows
…
we don’t get the result we want. The lm function ignores the group_by. This is expected because lm is not part of the tidyverse and does not know how to handle the outcome of a grouped tibble.

The tidyverse functions know how to interpret grouped tibbles. Furthermore, to facilitate stringing commands through the pipe %>%, tidyverse functions consistently return data frames, since this assures that the output of a function is accepted as the input of another. But most R functions do not recognize grouped tibbles nor do they return data frames. The lm function is an example. The do functions serves as a bridge between R functions, such as lm, and the tidyverse. The do function understands grouped tibbles and always returns a data frame.

So, let’s try to use the do function to fit a regression line to each HR strata:

dat %>%  
  group_by(HR) %>%
  do(fit = lm(R ~ BB, data = .))
#> Source: local data frame [9 x 2]
#> Groups: <by row>
#> 
#> # A tibble: 9 x 2
#>      HR fit     
#> * <dbl> <list>  
#> 1   0.4 <S3: lm>
#> 2   0.5 <S3: lm>
#> 3   0.6 <S3: lm>
#> 4   0.7 <S3: lm>
#> 5   0.8 <S3: lm>
#> 6   0.9 <S3: lm>
#> # ... with 3 more rows
…
For a useful data frame to be constructed, the output of the function must be a data frame too. We could build a function that returns only what we want in the form of a data frame:

get_slope <- function(data){
  fit <- lm(R ~ BB, data = data)
  data.frame(slope = fit$coefficients[2], 
             se = summary(fit)$coefficient[2,2])
}

And then use do without naming the output, since we are already getting a data frame:

dat %>%  
  group_by(HR) %>%
  do(get_slope(.))
#> # A tibble: 9 x 3
#> # Groups:   HR [9]
#>      HR slope     se
#>   <dbl> <dbl>  <dbl>
#> 1   0.4 0.734 0.208 
#> 2   0.5 0.566 0.110 
#> 3   0.6 0.412 0.0974
#> 4   0.7 0.285 0.0705
#> 5   0.8 0.365 0.0652
#> 6   0.9 0.261 0.0754
#> # ... with 3 more rows

If we name the output, then we get something we do not want, a column containing a data frames:

dat %>%  
  group_by(HR) %>%
  do(slope = get_slope(.))
#> Source: local data frame [9 x 2]
#> Groups: <by row>
#> 
#> # A tibble: 9 x 2
#>      HR slope               
#> * <dbl> <list>              
#> 1   0.4 <data.frame [1 × 2]>
#> 2   0.5 <data.frame [1 × 2]>
#> 3   0.6 <data.frame [1 × 2]>
#> 4   0.7 <data.frame [1 × 2]>
#> 5   0.8 <data.frame [1 × 2]>
#> 6   0.9 <data.frame [1 × 2]>
#> # ... with 3 more rows
This is not very useful.

Now, let’s cover one last feature of do. If the data frame being returned has more than one row, these will be concatenated appropriately. Here is an example in which we return both estimated parameters:

get_lse <- function(data){
  fit <- lm(R ~ BB, data = data)
  data.frame(term = names(fit$coefficients),
    slope = fit$coefficients, 
    se = summary(fit)$coefficient[,2])
}

dat %>%  
  group_by(HR) %>%
  do(get_lse(.))
#> # A tibble: 18 x 4
#> # Groups:   HR [9]
#>      HR term        slope     se
#>   <dbl> <fct>       <dbl>  <dbl>
#> 1   0.4 (Intercept) 1.36  0.631 
#> 2   0.4 BB          0.734 0.208 
#> 3   0.5 (Intercept) 2.01  0.344 
#> 4   0.5 BB          0.566 0.110 
#> 5   0.6 (Intercept) 2.53  0.305 
#> 6   0.6 BB          0.412 0.0974
#> # ... with 12 more rows
…
tidy(fit, conf.int = TRUE)
#> # A tibble: 2 x 7
#>   term        estimate std.error statistic  p.value conf.low conf.high
#>   <chr>          <dbl>     <dbl>     <dbl>    <dbl>    <dbl>     <dbl>
#> 1 (Intercept)    2.20     0.113       19.4 1.06e-70    1.98      2.42 
#> 2 BB             0.638    0.0344      18.5 1.37e-65    0.570     0.705

Because the outcome is a data frame, we can immediately use it with do to string together the commands that produce the table we are after. Because a data frame is returned, we can filter and select the rows and columns we want:

dat %>%  
  group_by(HR) %>%
  do(tidy(lm(R ~ BB, data = .), conf.int = TRUE)) %>%
  filter(term == "BB") %>%
  select(HR, estimate, conf.low, conf.high)
#> # A tibble: 9 x 4
#> # Groups:   HR [9]
#>      HR estimate conf.low conf.high
#>   <dbl>    <dbl>    <dbl>     <dbl>
#> 1   0.4    0.734    0.308     1.16 
#> 2   0.5    0.566    0.346     0.786
#> 3   0.6    0.412    0.219     0.605
#> 4   0.7    0.285    0.146     0.425
#> 5   0.8    0.365    0.236     0.494
#> 6   0.9    0.261    0.112     0.410
#> # ... with 3 more rows
…
Finally, we will use the spread function to have one column for the rookie and sophomore years batting averages:

ROY <- ROY %>% spread(rookie, AVG) %>% arrange(desc(rookie))

We can see the top performers in their first year:

ROY
#> # A tibble: 99 x 6
#>   playerID  rookie_year nameFirst nameLast rookie sophomore
#>   <chr>           <int> <chr>     <chr>     <dbl>     <dbl>
#> 1 mccovwi01        1959 Willie    McCovey   0.354     0.238
#> 2 suzukic01        2001 Ichiro    Suzuki    0.350     0.321
#> 3 bumbral01        1973 Al        Bumbry    0.337     0.233
#> 4 lynnfr01         1975 Fred      Lynn      0.331     0.314
#> 5 pujolal01        2001 Albert    Pujols    0.329     0.314
#> 6 troutmi01        2012 Mike      Trout     0.326     0.323
#> # ... with 93 more rows
…
The same pattern arises when we look at the top performers: batting averages go down for the most of the top performers.

two_years
#> # A tibble: 312 x 4
#>   nameFirst nameLast `2013` `2014`
#>   <chr>     <chr>     <dbl>  <dbl>
#> 1 Miguel    Cabrera   0.348  0.313
#> 2 Hanley    Ramirez   0.345  0.283
#> 3 Michael   Cuddyer   0.331  0.332
#> 4 Scooter   Gennett   0.324  0.289
#> 5 Joe       Mauer     0.324  0.277
#> 6 Mike      Trout     0.323  0.287
#> # ... with 306 more rows

But these are not rookies! Also, look at what happens to the worst performers of 2013:

arrange(two_years, `2013`)
#> # A tibble: 312 x 4
#>   nameFirst nameLast `2013` `2014`
#>   <chr>     <chr>     <dbl>  <dbl>
#> 1 Danny     Espinosa  0.158  0.219
#> 2 Dan       Uggla     0.179  0.149
#> 3 Jeff      Mathis    0.181  0.2  
#> 4 Melvin    Upton     0.184  0.208
#> 5 Adam      Rosales   0.190  0.262
#> 6 Aaron     Hicks     0.192  0.215
#> # ... with 306 more rows
…
