Chapter 21 Reshaping data | Introduction to Data Science
…
The code to gather the fertility data therefore looks like this:

new_tidy_data <- gather(wide_data, year, fertility, `1960`:`2015`)

We can also use the pipe like this:

new_tidy_data <- wide_data %>% gather(year, fertility, `1960`:`2015`)

We can see that the data have been converted to tidy format with columns year and fertility:

head(new_tidy_data)
#> # A tibble: 6 x 3
#>   country     year  fertility
#>   <chr>       <chr>     <dbl>
#> 1 Germany     1960       2.41
#> 2 South Korea 1960       6.16
#> 3 Germany     1961       2.44
#> 4 South Korea 1961       5.99
#> 5 Germany     1962       2.47
#> # … with 1 more row
…
First, note that the data is in wide format. Second, notice that this table includes values for two variables, fertility and life expectancy, with the column name encoding which column represents which variable. Encoding information in the column names is not recommended but, unfortunately, it is quite common. We will put our wrangling skills to work to extract this information and store it in a tidy fashion.

We can start the data wrangling with the gather function, but we should no longer use the column name year for the new column since it also contains the variable type. We will call it key, the default, for now:

dat <- raw_dat %>% gather(key, value, -country)
head(dat)
#> # A tibble: 6 x 3
#>   country     key                  value
#>   <chr>       <chr>                <dbl>
#> 1 Germany     1960_fertility        2.41
#> 2 South Korea 1960_fertility        6.16
#> 3 Germany     1960_life_expectancy 69.3 
#> 4 South Korea 1960_life_expectancy 53.0 
#> 5 Germany     1961_fertility        2.44
#> # … with 1 more row
…
dat$key[1:5]
#> [1] "1960_fertility"       "1960_fertility"       "1960_life_expectancy"
#> [4] "1960_life_expectancy" "1961_fertility"

Encoding multiple variables in a column name is such a common problem that the readr package includes a function to separate these columns into two or more. Apart from the data, the separate function takes three arguments: the name of the column to be separated, the names to be used for the new columns, and the character that separates the variables. So, a first attempt at this is:

dat %>% separate(key, c("year", "variable_name"), "_")

Because _ is the default separator assumed by separate, we do not have to include it in the code:

dat %>% separate(key, c("year", "variable_name"))
#> Warning: Expected 2 pieces. Additional pieces discarded in 112 rows [3,
#> 4, 7, 8, 11, 12, 15, 16, 19, 20, 23, 24, 27, 28, 31, 32, 35, 36, 39,
#> 40, ...].
#> # A tibble: 224 x 4
#>   country     year  variable_name value
#>   <chr>       <chr> <chr>         <dbl>
#> 1 Germany     1960  fertility      2.41
#> 2 South Korea 1960  fertility      6.16
#> 3 Germany     1960  life          69.3 
#> 4 South Korea 1960  life          53.0 
#> 5 Germany     1961  fertility      2.44
#> # … with 219 more rows

The function does separate the values, but we run into a new problem. We receive the warning Too many values at 112 locations: and that the life_expectancy variable is truncated to life. This is because the _ is used to separate life and expectancy, not just year and variable name! We could add a third column to catch this and let the separate function know which column to fill in with missing values, NA, when there is no third value. Here we tell it to fill the column on the right:

var_names <- c("year", "first_variable_name", "second_variable_name")
dat %>% separate(key, var_names, fill = "right")
#> # A tibble: 224 x 5
#>   country     year  first_variable_name second_variable_name value
#>   <chr>       <chr> <chr>               <chr>                <dbl>
#> 1 Germany     1960  fertility           <NA>                  2.41
#> 2 South Korea 1960  fertility           <NA>                  6.16
#> 3 Germany     1960  life                expectancy           69.3 
#> 4 South Korea 1960  life                expectancy           53.0 
#> 5 Germany     1961  fertility           <NA>                  2.44
#> # … with 219 more rows

However, if we read the separate help file, we find that a better approach is to merge the last two variables when there is an extra separation:

dat %>% separate(key, c("year", "variable_name"), extra = "merge")
#> # A tibble: 224 x 4
#>   country     year  variable_name   value
#>   <chr>       <chr> <chr>           <dbl>
#> 1 Germany     1960  fertility        2.41
#> 2 South Korea 1960  fertility        6.16
#> 3 Germany     1960  life_expectancy 69.3 
#> 4 South Korea 1960  life_expectancy 53.0 
#> 5 Germany     1961  fertility        2.44
#> # … with 219 more rows

This achieves the separation we wanted. However, we are not done yet. We need to create a column for each variable. As we learned, the spread function can do this:

dat %>% 
  separate(key, c("year", "variable_name"), extra = "merge") %>%
  spread(variable_name, value) 
#> # A tibble: 112 x 4
#>   country year  fertility life_expectancy
#>   <chr>   <chr>     <dbl>           <dbl>
#> 1 Germany 1960       2.41            69.3
#> 2 Germany 1961       2.44            69.8
#> 3 Germany 1962       2.47            70.0
#> 4 Germany 1963       2.49            70.1
#> 5 Germany 1964       2.49            70.7
#> # … with 107 more rows

The data is now in tidy format with one row for each observation with three variables: year, fertility, and life expectancy.

21.4 unite

It is sometimes useful to do the inverse of separate, unite two columns into one. To demonstrate how to use unite, we show code that, although not the optimal approach, serves as an illustration. Suppose that we did not know about extra and used this command to separate:

dat %>% 
  separate(key, var_names, fill = "right")
#> # A tibble: 224 x 5
#>   country     year  first_variable_name second_variable_name value
#>   <chr>       <chr> <chr>               <chr>                <dbl>
#> 1 Germany     1960  fertility           <NA>                  2.41
#> 2 South Korea 1960  fertility           <NA>                  6.16
#> 3 Germany     1960  life                expectancy           69.3 
#> 4 South Korea 1960  life                expectancy           53.0 
#> 5 Germany     1961  fertility           <NA>                  2.44
#> # … with 219 more rows

We can achieve the same final result by uniting the second and third columns, then spreading the columns and renaming fertility_NA to fertility:

dat %>% 
  separate(key, var_names, fill = "right") %>%
  unite(variable_name, first_variable_name, second_variable_name) %>%
  spread(variable_name, value) %>%
  rename(fertility = fertility_NA)
#> # A tibble: 112 x 4
#>   country year  fertility life_expectancy
#>   <chr>   <chr>     <dbl>           <dbl>
#> 1 Germany 1960       2.41            69.3
#> 2 Germany 1961       2.44            69.8
#> 3 Germany 1962       2.47            70.0
#> 4 Germany 1963       2.49            70.1
#> 5 Germany 1964       2.49            70.7
#> # … with 107 more rows
…
