Introduction to Data Science
…
do_fisher_test <- function(m, x, n, y){
  tab <- tibble(men = c(x, m-x), women = c(y, n-y))
  tidy(fisher.test(tab)) %>% 
    rename(odds = estimate) %>%
    mutate(difference = y/n - x/m)
}
res <- research_funding_rates %>% 
  group_by(discipline) %>%
  do(do_fisher_test(.$applications_men, .$awards_men, 
                    .$applications_women, .$awards_women)) %>%
  ungroup() %>%
  select(discipline, difference, p.value) %>%
  arrange(difference)
res 
#> # A tibble: 9 x 3
#>   discipline          difference p.value
#>   <chr>                    <dbl>   <dbl>
#> 1 Earth/life sciences   -0.101    0.0367
#> 2 Medical sciences      -0.0762   0.0175
#> 3 Physics               -0.0464   1     
#> 4 Social sciences       -0.0380   0.127 
#> 5 Chemical sciences     -0.00865  1     
#> 6 Physical sciences      0.0382   0.651 
#> # ... with 3 more rows
…
