Introduction to Data Science
…
The data does not appear to be normally distributed and the standard error appears to be larger than 0.007. The theory is not quite working here.

35.3 Pollster bias

Notice that various pollsters are involved and some are taking several polls a week:

polls %>% group_by(pollster) %>% summarize(n())
#> # A tibble: 15 x 2
#>   pollster                                                   `n()`
#>   <fct>                                                      <int>
#> 1 ABC News/Washington Post                                       7
#> 2 Angus Reid Global                                              1
#> 3 CBS News/New York Times                                        2
#> 4 Fox News/Anderson Robbins Research/Shaw & Company Research     2
#> 5 IBD/TIPP                                                       8
#> 6 Insights West                                                  1
#> # ... with 9 more rows
…
