Introduction to Data Science
…
The data does not appear to be normally distributed and the standard error appears to be larger than 0.007. The theory is not quite working here.

25.7.3 Pollster bias

Notice that various pollsters are involved and some are taking several polls a week:

polls %>% group_by(pollster) %>% summarize(n())
#> # A tibble: 15 x 2
#>   pollster                                                   `n()`
#>   <fct>                                                      <int>
#> 1 ABC News/Washington Post                                       7
#> 2 Angus Reid Global                                              1
#> 3 CBS News/New York Times                                        2
#> 4 Fox News/Anderson Robbins Research/Shaw & Company Research     2
#> 5 IBD/TIPP                                                       8
#> 6 Insights West                                                  1
#> # ... with 9 more rows
…
results <- polls_us_election_2016 %>%
  filter(state!="U.S." & 
           !str_detect(state, "CD") & 
           enddate >="2016-10-31" & 
           (grade %in% c("A+","A","A-","B+") | is.na(grade))) %>%
  mutate(spread = rawpoll_clinton/100 - rawpoll_trump/100) %>%
  group_by(state) %>%
  summarize(avg = mean(spread), sd = sd(spread), n = n()) %>%
  mutate(state = as.character(state))

Here are the 10 closest races according to the polls:

results %>% arrange(abs(avg))
#> # A tibble: 47 x 4
#>   state               avg     sd     n
#>   <chr>             <dbl>  <dbl> <int>
#> 1 Florida         0.00356 0.0163     7
#> 2 North Carolina -0.00730 0.0306     9
#> 3 Ohio           -0.0104  0.0252     6
#> 4 Nevada          0.0169  0.0441     7
#> 5 Iowa           -0.0197  0.0437     3
#> 6 Michigan        0.0209  0.0203     6
#> # ... with 41 more rows
…
Because we can’t estimate the standard deviation for states with just one poll, we will use the median of the standard deviations estimated for states with more than one poll.

results <- results %>%
  mutate(sd = ifelse(is.na(sd), median(results$sd, na.rm = TRUE), sd))

To make probabilistic arguments, we will use a Monte Carlo simulation. For each state, we apply the Bayesian approach to generate an election day \(d\). We could construct the priors for each state based on recent history. However, to keep it simple, we assign a prior to each state that assumes we know nothing about what will happen. Since from election year to election year the results from a specific state don’t change that much, we will assign a standard deviation of 2% or \(\tau=0.02\). The Bayesian calculation looks like this:

mu <- 0
tau <- 0.02
results %>% mutate(sigma = sd/sqrt(n), 
                   B = sigma^2 / (sd^2 + tau^2),
                   posterior_mean = B * mu + (1 - B) * avg,
                   posterior_se = sqrt(1/ (1/sigma^2 + 1/tau^2))) %>%
  arrange(abs(posterior_mean))
#> # A tibble: 47 x 12
#>   state      avg     sd     n electoral_votes clinton trump others   sigma
#>   <chr>    <dbl>  <dbl> <int>           <int>   <dbl> <dbl>  <dbl>   <dbl>
#> 1 Flor…  0.00356 0.0163     7              29    47.8  49      3.2 0.00618
#> 2 Nort… -0.00730 0.0306     9              15    46.2  49.8    4   0.0102 
#> 3 Ohio  -0.0104  0.0252     6              18    43.5  51.7    4.8 0.0103 
#> 4 Iowa  -0.0197  0.0437     3               6    41.7  51.1    7.1 0.0252 
#> 5 Neva…  0.0169  0.0441     7               6    47.9  45.5    6.6 0.0167 
#> 6 Mich…  0.0209  0.0203     6              16    47.3  47.5    5.2 0.00827
#> # ... with 41 more rows, and 3 more variables: B <dbl>,
#> #   posterior_mean <dbl>, posterior_se <dbl>
…
