Chapter 25 String Processing | Introduction to Data Science
…
Now we are ready to get the actual data. By examining the tab object, we notice that the information is in lines 6 through 14. We can use str_split again to achieve our goal:

new_research_funding_rates <- tab[6:14] %>%
  str_trim %>%
  str_split("\\s{2,}", simplify = TRUE) %>%
  data.frame(stringsAsFactors = FALSE) %>%
  setNames(the_names) %>%
  mutate_at(-1, parse_number)
new_research_funding_rates %>% as_tibble()
#> # A tibble: 9 x 10
#>   discipline applications_to… applications_men applications_wo…
#>   <chr>                 <dbl>            <dbl>            <dbl>
#> 1 Chemical …              122               83               39
#> 2 Physical …              174              135               39
#> 3 Physics                  76               67                9
#> 4 Humanities              396              230              166
#> 5 Technical…              251              189               62
#> 6 Interdisc…              183              105               78
#> # ... with 3 more rows, and 6 more variables: awards_total <dbl>,
#> #   awards_men <dbl>, awards_women <dbl>, success_rates_total <dbl>,
#> #   success_rates_men <dbl>, success_rates_women <dbl>
…
