Introduction to Data Science
…
poem <- c("Roses are red,", "Violets are blue,", 
          "Sugar is sweet,", "And so are you.")
example <- data_frame(line = c(1, 2, 3, 4),
                      text = poem)
example
#> # A tibble: 4 x 2
#>    line text             
#>   <dbl> <chr>            
#> 1     1 Roses are red,   
#> 2     2 Violets are blue,
#> 3     3 Sugar is sweet,  
#> 4     4 And so are you.
example %>% unnest_tokens(word, text)
#> # A tibble: 13 x 2
#>    line word   
#>   <dbl> <chr>  
#> 1     1 roses  
#> 2     1 are    
#> 3     1 red    
#> 4     2 violets
#> 5     2 are    
#> 6     2 blue   
#> # ... with 7 more rows
…
Now we are now ready to extract the words for all our tweets.

tweet_words <- campaign_tweets %>% 
  mutate(text = str_replace_all(text, "https://t.co/[A-Za-z\\d]+|&amp;", ""))  %>%
  unnest_tokens(word, text, token = "regex", pattern = pattern) 

And we can now answer questions such as “what are the most commonly used words?”:

tweet_words %>% 
  count(word) %>%
  arrange(desc(n))
#> # A tibble: 6,211 x 2
#>   word      n
#>   <chr> <int>
#> 1 the    2335
#> 2 to     1413
#> 3 and    1246
#> 4 a      1210
#> 5 in     1189
#> 6 i      1161
#> # ... with 6,205 more rows

It is not surprising that these are the top words. The top words are not informative. The tidytext package has a database of these commonly used words, referred to as stop words, in text mining:

stop_words
#> # A tibble: 1,149 x 2
#>   word      lexicon
#>   <chr>     <chr>  
#> 1 a         SMART  
#> 2 a's       SMART  
#> 3 able      SMART  
#> 4 about     SMART  
#> 5 above     SMART  
#> 6 according SMART  
#> # ... with 1,143 more rows
If we filter out rows representing stop words with filter(!word %in% stop_words$word):

tweet_words <- campaign_tweets %>% 
  mutate(text = str_replace_all(text, "https://t.co/[A-Za-z\\d]+|&amp;", ""))  %>%
  unnest_tokens(word, text, token = "regex", pattern = pattern) %>%
  filter(!word %in% stop_words$word ) 

we end up with a much more informative set of top 10 tweeted words:

tweet_words %>% 
  count(word) %>%
  top_n(10, n) %>%
  mutate(word = reorder(word, n)) %>%
  arrange(desc(n))
#> # A tibble: 10 x 2
#>   word                       n
#>   <fct>                  <int>
#> 1 #trump2016               415
#> 2 hillary                  407
#> 3 people                   303
#> 4 #makeamericagreatagain   296
#> 5 america                  254
#> 6 clinton                  239
#> # ... with 4 more rows
…
Now that we have all our words in a table, along with information about what device was used to compose the tweet they came from, we can start exploring which words are more common when comparing Android to iPhone.

For each word, we want to know if it is more likely to come from an Android tweet or an iPhone tweet. In Section ?? we will introduce the odds ratio as a summary statistic useful for quantifying these differences. For each device and a given word, let’s call it y, we compute the odds or the ratio between the proportion of words that are y and not y and compute the ratio of those odds. Here we will have many proportions that are 0, so we use the 0.5 correction described in Section ??.

android_iphone_or <- tweet_words %>%
  count(word, source) %>%
  spread(source, n, fill = 0) %>%
  mutate(or = (Android + 0.5) / (sum(Android) - Android + 0.5) / 
           ( (iPhone + 0.5) / (sum(iPhone) - iPhone + 0.5)))

Here are the highest odds ratios for Android

android_iphone_or %>% arrange(desc(or))
#> # A tibble: 5,509 x 4
#>   word      Android iPhone    or
#>   <chr>       <dbl>  <dbl> <dbl>
#> 1 mails          22      0  39.3
#> 2 poor           13      0  23.6
#> 3 poorly         12      0  21.8
#> 4 @cbsnews       11      0  20.1
#> 5 bosses         11      0  20.1
#> 6 turnberry      11      0  20.1
#> # ... with 5,503 more rows

and the top for iPhone:

android_iphone_or %>% arrange(or)
#> # A tibble: 5,509 x 4
#>   word                   Android iPhone      or
#>   <chr>                    <dbl>  <dbl>   <dbl>
#> 1 #makeamericagreatagain       0    296 0.00144
#> 2 #americafirst                0     71 0.00607
#> 3 #draintheswamp               0     63 0.00683
#> 4 #trump2016                   3    412 0.00718
#> 5 #votetrump                   0     56 0.00769
#> 6 join                         1    157 0.00821
#> # ... with 5,503 more rows

Given that several of these words are overall low frequency words, we can impose a filter based on the total frequency like this:

android_iphone_or %>% filter(Android+iPhone > 100) %>%
  arrange(desc(or))
#> # A tibble: 30 x 4
#>   word        Android iPhone    or
#>   <chr>         <dbl>  <dbl> <dbl>
#> 1 @cnn            104     18  4.95
#> 2 bad             104     26  3.45
#> 3 crooked         157     49  2.79
#> 4 ted              85     28  2.62
#> 5 interviewed      76     25  2.62
#> 6 media            77     26  2.56
#> # ... with 24 more rows

android_iphone_or %>% filter(Android+iPhone > 100) %>%
  arrange(or)
#> # A tibble: 30 x 4
#>   word                   Android iPhone      or
#>   <chr>                    <dbl>  <dbl>   <dbl>
#> 1 #makeamericagreatagain       0    296 0.00144
#> 2 #trump2016                   3    412 0.00718
#> 3 join                         1    157 0.00821
#> 4 tomorrow                    25    101 0.218  
#> 5 vote                        46     67 0.600  
#> 6 america                    114    141 0.703  
#> # ... with 24 more rows
…
The loughran and nrc lexicons provide several different sentiments:

get_sentiments("loughran") %>% count(sentiment)
#> # A tibble: 6 x 2
#>   sentiment        n
#>   <chr>        <int>
#> 1 constraining   184
#> 2 litigious      903
#> 3 negative      2355
#> 4 positive       354
#> 5 superfluous     56
#> 6 uncertainty    297

get_sentiments("nrc") %>% count(sentiment)
#> # A tibble: 10 x 2
#>   sentiment        n
#>   <chr>        <int>
#> 1 anger         1247
#> 2 anticipation   839
#> 3 disgust       1058
#> 4 fear          1476
#> 5 joy            689
#> 6 negative      3324
#> # ... with 4 more rows
…
Now we are ready to perform a quantitative analysis comparing Android and iPhone by comparing the sentiments of the tweets posted from each device. Here we could perform a tweet by tweet analysis, assigning a sentiment to each tweet. However, this will be challenging since each tweet will have several sentiments attached to it, one for each word appearing in the lexicon. For illustrative purposes, we will perform a much simpler analysis: we will count and compare the frequencies of each sentiment appearing in each device.

sentiment_counts <- tweet_words %>%
  left_join(nrc, by = "word") %>%
  count(source, sentiment) %>%
  spread(source, n) %>%
  mutate(sentiment = replace_na(sentiment, replace = "none"))
sentiment_counts
#> # A tibble: 11 x 3
#>   sentiment    Android iPhone
#>   <chr>          <int>  <int>
#> 1 anger            965    527
#> 2 anticipation     915    710
#> 3 disgust          641    318
#> 4 fear             802    486
#> 5 joy              698    540
#> 6 negative        1668    935
#> # ... with 5 more rows

For each sentiment, we can compute the odds of being in the device: proportion of words with sentiment versus proportion of words without, and then compute the odds ratio comparing the two devices.

sentiment_counts %>%
  mutate(Android = Android / (sum(Android) - Android) , 
         iPhone = iPhone / (sum(iPhone) - iPhone), 
         or = Android/iPhone) %>%
  arrange(desc(or))
#> # A tibble: 11 x 4
#>   sentiment Android iPhone    or
#>   <chr>       <dbl>  <dbl> <dbl>
#> 1 disgust    0.0304 0.0184  1.66
#> 2 anger      0.0465 0.0308  1.51
#> 3 negative   0.0831 0.0560  1.49
#> 4 sadness    0.0435 0.0300  1.45
#> 5 fear       0.0383 0.0283  1.35
#> 6 surprise   0.0250 0.0211  1.18
#> # ... with 5 more rows

So we do see some differences and the order is interesting: the largest three sentiments are disgust, anger, and negative! But are these differences just due to chance? How does this compare if we are just assigning sentiments at random? To answer this question we can compute, for each sentiment, an odds ratio and a confidence interval, which we define in the Inference part of this book. We will add the two values we need to form a two-by-two table and the odds ratio:

library(broom)
log_or <- sentiment_counts %>%
  mutate(log_or = log((Android / (sum(Android) - Android)) / 
      (iPhone / (sum(iPhone) - iPhone))),
          se = sqrt(1/Android + 1/(sum(Android) - Android) + 
                      1/iPhone + 1/(sum(iPhone) - iPhone)),
          conf.low = log_or - qnorm(0.975)*se,
          conf.high = log_or + qnorm(0.975)*se) %>%
  arrange(desc(log_or))
  
log_or
#> # A tibble: 11 x 7
#>   sentiment Android iPhone log_or     se conf.low conf.high
#>   <chr>       <int>  <int>  <dbl>  <dbl>    <dbl>     <dbl>
#> 1 disgust       641    318  0.504 0.0694   0.368      0.640
#> 2 anger         965    527  0.411 0.0551   0.303      0.519
#> 3 negative     1668    935  0.395 0.0422   0.313      0.478
#> 4 sadness       907    514  0.372 0.0562   0.262      0.482
#> 5 fear          802    486  0.302 0.0584   0.187      0.416
#> 6 surprise      530    365  0.168 0.0688   0.0332     0.303
#> # ... with 5 more rows
…
We see that the disgust, anger, negative, sadness and fear sentiments are associated with the Android in a way that is hard to explain by chance alone. Words not associated to a sentiment were strongly associated with the iPhone source, which is in agreement with the original claim about hyperbolic tweets.

If we are interested in exploring which specific words are driving these differences, we can refer back to our android_iphone_or object:

android_iphone_or %>% inner_join(nrc) %>%
  filter(sentiment == "disgust" & Android + iPhone > 10) %>%
  arrange(desc(or))
#> Joining, by = "word"
#> # A tibble: 20 x 5
#>   word     Android iPhone    or sentiment
#>   <chr>      <dbl>  <dbl> <dbl> <chr>    
#> 1 mess          15      2  5.41 disgust  
#> 2 finally       12      2  4.36 disgust  
#> 3 unfair        12      2  4.36 disgust  
#> 4 bad          104     26  3.45 disgust  
#> 5 lie           13      3  3.37 disgust  
#> 6 terrible      31      8  3.24 disgust  
#> # ... with 14 more rows
…
